Time, Offset, Low, High, NTP
0	-1202869.500000	 -1207081.000000	 -1198658.000000	 -1200617.319209
1000	-1200682.500000	 -1205104.000000	 -1196261.000000	 -1200617.319209
2000	-1200922.500000	 -1205582.000000	 -1196263.000000	 -1200617.319209
3000	-1156227.000000	 -1325965.000000	 -986489.000000	 -1200617.319209
4000	-1200750.000000	 -1205226.000000	 -1196274.000000	 -1200617.319209
5000	-1201199.500000	 -1206156.000000	 -1196243.000000	 -1200617.319209
6000	-1200810.500000	 -1205314.000000	 -1196307.000000	 -1200617.319209
7000	-1201033.500000	 -1206015.000000	 -1196052.000000	 -1200617.319209
8000	-1200567.000000	 -1207094.000000	 -1194040.000000	 -1200617.319209
9000	-1206615.000000	 -1216886.000000	 -1196344.000000	 -1200617.319209
10000	-1200788.000000	 -1205366.000000	 -1196210.000000	 -1200617.319209
11000	-1200577.000000	 -1205159.000000	 -1195995.000000	 -1200617.319209
12000	-1200427.000000	 -1205252.000000	 -1195602.000000	 -1200617.319209
13000	-1200621.000000	 -1205177.000000	 -1196065.000000	 -1200617.319209
14000	-1200654.000000	 -1205354.000000	 -1195954.000000	 -1200617.319209
15000	-1200749.500000	 -1205686.000000	 -1195813.000000	 -1200617.319209
16000	-1200548.000000	 -1205130.000000	 -1195966.000000	 -1200617.319209
17000	-1200583.500000	 -1205351.000000	 -1195816.000000	 -1200617.319209
18000	-1200716.500000	 -1205578.000000	 -1195855.000000	 -1200617.319209
19000	-1201247.500000	 -1206341.000000	 -1196154.000000	 -1200617.319209
20000	-1200339.500000	 -1205286.000000	 -1195393.000000	 -1200617.319209
21000	-1200627.500000	 -1205451.000000	 -1195804.000000	 -1200617.319209
22000	-1202035.500000	 -1205167.000000	 -1198904.000000	 -1200617.319209
23000	-1159970.000000	 -1205812.000000	 -1114128.000000	 -1200617.319209
24000	-1202231.500000	 -1205592.000000	 -1198871.000000	 -1200617.319209
25000	-1200516.500000	 -1205304.000000	 -1195729.000000	 -1200617.319209
26000	-1200059.000000	 -1204884.000000	 -1195234.000000	 -1200617.319209
27000	-1200680.500000	 -1205586.000000	 -1195775.000000	 -1200617.319209
28000	-1200510.500000	 -1205220.000000	 -1195801.000000	 -1200617.319209
29000	-1199982.000000	 -1206531.000000	 -1193433.000000	 -1200617.319209


	l	 -1204884.000000		 u	 -1198904.000000
	Survivors N: 27				Survivors N: 27
	Survivors after clustering N: 7				Survivors after clustering N: 7
	offset estimate	 -1200617.319209			offset estimate
